20220208_17:00 389:1188 636:22 88:337 ALL:1510 kdcproxy:37 dirsrv:54 pkiuser:114 LSOF:120267 AVG:average: 0.51, 0.51, 0.56 5044 8015
20220208_17:01 389:1184 636:22 88:133 ALL:1294 kdcproxy:37 dirsrv:51 pkiuser:113 LSOF:119778 AVG:average: 0.54, 0.52, 0.56 5172 7887
20220208_17:02 389:1173 636:23 88:631 ALL:1830 kdcproxy:37 dirsrv:54 pkiuser:113 LSOF:119381 AVG:average: 1.47, 0.78, 0.65 5091 7954
20220208_17:03 389:1175 636:23 88:321 ALL:1492 kdcproxy:37 dirsrv:51 pkiuser:113 LSOF:119354 AVG:average: 1.25, 0.81, 0.67 4988 8063
20220208_17:04 389:1164 636:23 88:333 ALL:1514 kdcproxy:37 dirsrv:51 pkiuser:113 LSOF:118963 AVG:average: 0.96, 0.81, 0.68 5135 7915
20220208_17:05 389:1163 636:22 88:269 ALL:1424 kdcproxy:37 dirsrv:51 pkiuser:113 LSOF:118783 AVG:average: 0.76, 0.78, 0.68 5133 7915
20220208_17:06 389:1124 636:22 88:159 ALL:1288 kdcproxy:37 dirsrv:51 pkiuser:113 LSOF:116938 AVG:average: 0.85, 0.77, 0.68 5000 8047
20220208_17:07 389:1141 636:22 88:433 ALL:1580 kdcproxy:37 dirsrv:54 pkiuser:113 LSOF:117672 AVG:average: 1.02, 0.85, 0.71 5117 7929
20220208_17:08 389:1121 636:23 88:647 ALL:1810 kdcproxy:37 dirsrv:51 pkiuser:113 LSOF:116879 AVG:average: 1.56, 1.02, 0.78 5128 7916
20220208_17:09 389:1114 636:23 88:369 ALL:1486 kdcproxy:37 dirsrv:51 pkiuser:113 LSOF:116416 AVG:average: 1.22, 0.99, 0.78 4911 8122
20220208_17:10 389:1102 636:23 88:165 ALL:1259 kdcproxy:37 dirsrv:51 pkiuser:113 LSOF:115881 AVG:average: 1.07, 0.98, 0.79 5116 7916
20220208_17:11 389:1087 636:22 88:213 ALL:1293 kdcproxy:37 dirsrv:54 pkiuser:113 LSOF:115074 AVG:average: 0.69, 0.89, 0.77 5086 7946
20220208_17:12 389:1070 636:22 88:377 ALL:1460 kdcproxy:37 dirsrv:51 pkiuser:113 LSOF:114237 AVG:average: 1.32, 1.01, 0.81 4900 8129
20220208_17:13 389:1052 636:22 88:210 ALL:1267 kdcproxy:37 dirsrv:51 pkiuser:113 LSOF:113425 AVG:average: 0.82, 0.93, 0.80 5113 7915
20220208_17:14 389:1017 636:22 88:131 ALL:1138 kdcproxy:37 dirsrv:51 pkiuser:113 LSOF:111647 AVG:average: 0.77, 0.88, 0.79 5113 7915
20220208_17:15 389:999 636:21 88:253 ALL:1267 kdcproxy:37 dirsrv:51 pkiuser:113 LSOF:111023 AVG:average: 1.38, 1.01, 0.84 5060 7966
20220208_17:16 389:944 636:21 88:133 ALL:1087 kdcproxy:37 dirsrv:51 pkiuser:113 LSOF:108023 AVG:average: 0.73, 0.90, 0.81 5134 7891
20220208_17:17 389:898 636:20 88:518 ALL:1465 kdcproxy:37 dirsrv:51 pkiuser:113 LSOF:105828 AVG:average: 1.04, 0.92, 0.82 5131 7891
20220208_17:18 389:877 636:20 88:258 ALL:1151 kdcproxy:37 dirsrv:51 pkiuser:113 LSOF:104729 AVG:average: 1.18, 0.94, 0.83 4970 8064
20220208_17:19 389:847 636:21 88:231 ALL:1100 kdcproxy:37 dirsrv:51 pkiuser:113 LSOF:103321 AVG:average: 0.89, 0.89, 0.82 5139 7892
20220208_17:20 389:828 636:21 88:155 ALL:986 kdcproxy:37 dirsrv:51 pkiuser:113 LSOF:102351 AVG:average: 0.77, 0.84, 0.81 5139 7892
20220208_17:21 389:800 636:21 88:109 ALL:924 kdcproxy:37 dirsrv:51 pkiuser:113 LSOF:101033 AVG:average: 0.56, 0.75, 0.78 4987 8041
20220208_17:22 389:805 636:21 88:236 ALL:1047 kdcproxy:37 dirsrv:51 pkiuser:113 LSOF:101215 AVG:average: 0.60, 0.71, 0.76 5136 7892
20220208_17:23 389:783 636:21 88:421 ALL:1247 kdcproxy:37 dirsrv:54 pkiuser:113 LSOF:100177 AVG:average: 0.70, 0.70, 0.76 5101 7926
20220208_17:24 389:773 636:21 88:282 ALL:1082 kdcproxy:37 dirsrv:54 pkiuser:113 LSOF:99870 AVG:average: 0.69, 0.69, 0.75 4876 8125
20220208_17:25 389:764 636:21 88:95 ALL:866 kdcproxy:37 dirsrv:54 pkiuser:113 LSOF:99631 AVG:average: 0.86, 0.72, 0.75 5075 7948
20220208_17:26 389:742 636:21 88:144 ALL:898 kdcproxy:37 dirsrv:51 pkiuser:113 LSOF:98152 AVG:average: 0.72, 0.69, 0.75 5111 7912
20220208_17:27 389:735 636:21 88:197 ALL:952 kdcproxy:37 dirsrv:51 pkiuser:113 LSOF:97788 AVG:average: 0.53, 0.64, 0.72 4923 8098
20220208_17:28 389:722 636:21 88:124 ALL:856 kdcproxy:37 dirsrv:51 pkiuser:113 LSOF:97246 AVG:average: 0.43, 0.60, 0.70 5108 7913
20220208_17:29 389:716 636:21 88:105 ALL:831 kdcproxy:37 dirsrv:54 pkiuser:113 LSOF:96860 AVG:average: 0.45, 0.58, 0.69 5093 7928
20220208_17:30 389:717 636:21 88:146 ALL:868 kdcproxy:37 dirsrv:51 pkiuser:113 LSOF:97118 AVG:average: 0.40, 0.53, 0.66 5027 7993
20220208_17:31 389:708 636:21 88:89 ALL:806 kdcproxy:37 dirsrv:51 pkiuser:113 LSOF:96477 AVG:average: 0.48, 0.53, 0.66 5107 7913
20220208_17:32 389:701 636:21 88:453 ALL:1193 kdcproxy:37 dirsrv:51 pkiuser:113 LSOF:96137 AVG:average: 0.45, 0.50, 0.64 5105 7912
20220208_17:33 389:705 636:21 88:270 ALL:985 kdcproxy:37 dirsrv:54 pkiuser:113 LSOF:96330 AVG:average: 0.70, 0.55, 0.65 4979 8037
20220208_17:34 389:699 636:20 88:197 ALL:906 kdcproxy:37 dirsrv:51 pkiuser:113 LSOF:96047 AVG:average: 0.87, 0.59, 0.66 5103 7912
20220208_17:35 389:692 636:20 88:150 ALL:847 kdcproxy:37 dirsrv:51 pkiuser:113 LSOF:95694 AVG:average: 0.64, 0.56, 0.64 5099 7915
20220208_17:36 389:672 636:20 88:103 ALL:789 kdcproxy:37 dirsrv:51 pkiuser:113 LSOF:94756 AVG:average: 0.35, 0.49, 0.61 4964 8050
20220208_17:37 389:682 636:20 88:225 ALL:922 kdcproxy:37 dirsrv:54 pkiuser:113 LSOF:95262 AVG:average: 0.46, 0.49, 0.60 5066 7946
20220208_17:38 389:672 636:20 88:396 ALL:1113 kdcproxy:37 dirsrv:51 pkiuser:113 LSOF:94846 AVG:average: 0.33, 0.44, 0.58 5198 7913
20220208_17:39 389:669 636:20 88:263 ALL:957 kdcproxy:37 dirsrv:51 pkiuser:113 LSOF:94706 AVG:average: 0.18, 0.37, 0.55 5005 8105
20220208_17:40 389:670 636:20 88:95 ALL:773 kdcproxy:37 dirsrv:54 pkiuser:113 LSOF:94918 AVG:average: 0.68, 0.47, 0.57 5164 7945
20220208_17:41 389:665 636:20 88:133 ALL:804 kdcproxy:37 dirsrv:51 pkiuser:113 LSOF:94468 AVG:average: 0.35, 0.42, 0.55 5195 7915
20220208_17:42 389:668 636:20 88:187 ALL:870 kdcproxy:37 dirsrv:51 pkiuser:113 LSOF:94828 AVG:average: 0.55, 0.45, 0.55 5081 8027
20220208_17:43 389:666 636:20 88:111 ALL:788 kdcproxy:37 dirsrv:54 pkiuser:113 LSOF:94423 AVG:average: 0.36, 0.41, 0.53 5178 7930
20220208_17:44 389:664 636:20 88:109 ALL:775 kdcproxy:37 dirsrv:51 pkiuser:113 LSOF:94323 AVG:average: 0.38, 0.40, 0.52 5193 7913
20220208_17:45 389:667 636:20 88:168 ALL:850 kdcproxy:37 dirsrv:51 pkiuser:113 LSOF:94547 AVG:average: 0.60, 0.44, 0.52 5064 8042
20220208_17:46 389:668 636:20 88:92 ALL:772 kdcproxy:37 dirsrv:54 pkiuser:113 LSOF:94500 AVG:average: 0.57, 0.45, 0.52 5174 7932
20220208_17:47 389:663 636:21 88:408 ALL:1123 kdcproxy:37 dirsrv:51 pkiuser:113 LSOF:94350 AVG:average: 0.55, 0.45, 0.51 5191 7913
20220208_17:48 389:667 636:21 88:156 ALL:831 kdcproxy:37 dirsrv:51 pkiuser:113 LSOF:94446 AVG:average: 0.61, 0.46, 0.51 5062 8040
20220208_17:49 389:658 636:21 88:195 ALL:876 kdcproxy:37 dirsrv:54 pkiuser:113 LSOF:94030 AVG:average: 0.59, 0.47, 0.51 5207 7895
20220208_17:50 389:659 636:21 88:135 ALL:803 kdcproxy:37 dirsrv:51 pkiuser:113 LSOF:94180 AVG:average: 0.65, 0.48, 0.51 5207 7894
20220208_17:51 389:647 636:21 88:109 ALL:773 kdcproxy:37 dirsrv:51 pkiuser:113 LSOF:93434 AVG:average: 0.60, 0.48, 0.50 5089 8004
20220208_17:52 389:659 636:21 88:202 ALL:881 kdcproxy:37 dirsrv:54 pkiuser:113 LSOF:94048 AVG:average: 0.51, 0.48, 0.50 5195 7897
20220208_17:53 389:649 636:22 88:337 ALL:1026 kdcproxy:37 dirsrv:51 pkiuser:113 LSOF:93703 AVG:average: 0.51, 0.47, 0.50 5195 7895
20220208_17:54 389:647 636:22 88:210 ALL:879 kdcproxy:37 dirsrv:51 pkiuser:113 LSOF:93600 AVG:average: 0.52, 0.46, 0.50 5072 8016
20220208_17:55 389:652 636:22 88:87 ALL:746 kdcproxy:37 dirsrv:54 pkiuser:113 LSOF:93692 AVG:average: 0.45, 0.45, 0.49 5185 7904
20220208_17:56 389:648 636:22 88:89 ALL:742 kdcproxy:37 dirsrv:51 pkiuser:113 LSOF:93649 AVG:average: 0.49, 0.45, 0.49 5193 7895
20220208_17:57 389:649 636:22 88:177 ALL:845 kdcproxy:37 dirsrv:51 pkiuser:113 LSOF:93598 AVG:average: 0.43, 0.43, 0.48 5063 8025
20220208_17:58 389:646 636:22 88:102 ALL:757 kdcproxy:37 dirsrv:51 pkiuser:113 LSOF:93451 AVG:average: 0.42, 0.42, 0.47 5192 7895
20220208_17:59 389:645 636:22 88:92 ALL:744 kdcproxy:37 dirsrv:53 pkiuser:113 LSOF:93495 AVG:average: 0.34, 0.39, 0.46 5190 7896
20220208_18:00 389:644 636:22 88:139 ALL:792 kdcproxy:37 dirsrv:51 pkiuser:113 LSOF:93393 AVG:average: 0.72, 0.45, 0.47 5118 7968
20220208_18:01 389:646 636:22 88:85 ALL:736 kdcproxy:37 dirsrv:51 pkiuser:113 LSOF:93436 AVG:average: 0.56, 0.46, 0.48 5191 7895
20220208_18:02 389:637 636:21 88:387 ALL:1064 kdcproxy:37 dirsrv:51 pkiuser:113 LSOF:93081 AVG:average: 0.69, 0.50, 0.49 5188 7895
20220208_18:03 389:637 636:21 88:124 ALL:767 kdcproxy:37 dirsrv:51 pkiuser:113 LSOF:92980 AVG:average: 0.59, 0.49, 0.49 5077 8004
20220208_18:04 389:632 636:21 88:166 ALL:810 kdcproxy:37 dirsrv:54 pkiuser:113 LSOF:92824 AVG:average: 0.70, 0.52, 0.50 5174 7909
20220208_18:05 389:634 636:21 88:129 ALL:768 kdcproxy:37 dirsrv:51 pkiuser:113 LSOF:92841 AVG:average: 0.45, 0.47, 0.49 5186 7895
20220208_18:06 389:624 636:21 88:117 ALL:756 kdcproxy:37 dirsrv:51 pkiuser:113 LSOF:92355 AVG:average: 0.35, 0.44, 0.47 5027 8053
20220208_18:07 389:635 636:21 88:162 ALL:806 kdcproxy:37 dirsrv:54 pkiuser:113 LSOF:92879 AVG:average: 0.43, 0.45, 0.48 5157 7924
20220208_18:08 389:623 636:20 88:330 ALL:993 kdcproxy:37 dirsrv:51 pkiuser:113 LSOF:92365 AVG:average: 0.40, 0.44, 0.47 5183 7895
20220208_18:09 389:626 636:20 88:218 ALL:858 kdcproxy:37 dirsrv:51 pkiuser:113 LSOF:92529 AVG:average: 0.37, 0.42, 0.47 5028 8049
20220208_18:10 389:632 636:20 88:73 ALL:708 kdcproxy:37 dirsrv:54 pkiuser:113 LSOF:92728 AVG:average: 0.50, 0.45, 0.48 5147 7929
20220208_18:11 389:628 636:20 88:86 ALL:718 kdcproxy:37 dirsrv:51 pkiuser:113 LSOF:92583 AVG:average: 0.42, 0.43, 0.47 5181 7895
20220208_18:12 389:631 636:20 88:176 ALL:820 kdcproxy:37 dirsrv:51 pkiuser:113 LSOF:92701 AVG:average: 0.54, 0.44, 0.47 5003 8073
20220208_18:13 389:630 636:20 88:116 ALL:748 kdcproxy:37 dirsrv:51 pkiuser:113 LSOF:92837 AVG:average: 0.56, 0.47, 0.48 5178 7897
20220208_18:14 389:628 636:20 88:87 ALL:719 kdcproxy:37 dirsrv:54 pkiuser:113 LSOF:92670 AVG:average: 0.64, 0.48, 0.48 5146 7928
20220208_18:15 389:630 636:20 88:105 ALL:745 kdcproxy:37 dirsrv:51 pkiuser:113 LSOF:92975 AVG:average: 0.66, 0.50, 0.49 5064 8009
20220208_18:16 389:630 636:20 88:87 ALL:714 kdcproxy:37 dirsrv:54 pkiuser:113 LSOF:92650 AVG:average: 0.42, 0.46, 0.48 5148 7926
20220208_18:17 389:626 636:21 88:388 ALL:1046 kdcproxy:37 dirsrv:52 pkiuser:113 LSOF:92596 AVG:average: 0.33, 0.42, 0.46 5176 7896
20220208_18:18 389:631 636:21 88:159 ALL:800 kdcproxy:37 dirsrv:51 pkiuser:113 LSOF:92697 AVG:average: 0.55, 0.44, 0.47 5029 8041
20220208_18:19 389:628 636:22 88:182 ALL:824 kdcproxy:37 dirsrv:54 pkiuser:113 LSOF:92520 AVG:average: 0.48, 0.44, 0.46 5171 7899
